C:\Users\Karina\Documents\NetBeansProjects\ActFormativa1KReyes\src\main\java\com\mycompany\actformativa1kreyes\JAXRSConfiguration.java
C:\Users\Karina\Documents\NetBeansProjects\ActFormativa1KReyes\src\main\java\com\mycompany\actformativa1kreyes\resources\JavaEE8Resource.java
C:\Users\Karina\Documents\NetBeansProjects\ActFormativa1KReyes\src\main\java\root\model\Edad.java
C:\Users\Karina\Documents\NetBeansProjects\ActFormativa1KReyes\src\main\java\root\controller\Controller.java
